…
## Introduction

You can use this client to query data from the [CoinMetrics API V4](https://docs.coinmetrics.io/api/v4).
You can just set your API Key as an environment variable and get Coin Metrics data into R programs. If no API is set it will
default to the community API. 

```r
> library(coinmetrics)
> Sys.setenv("CM_API_KEY"="<YOUR_API_KEY>")
> assets = c("btc", "eth", "avax")
> start_date = "2023-01-01"
> frequency="1h"
> coinmetrics::get_asset_metrics(assets = assets, frequency = frequency, start_time = start_date, metrics = c("ReferenceRateUSD"))
# A tibble: 1,281 × 3
   asset time                ReferenceRateUSD
   <chr> <dttm>                         <dbl>
 1 avax  2023-01-01 00:00:00             10.9
 2 avax  2023-01-01 01:00:00             10.8
 3 avax  2023-01-01 02:00:00             10.8
 4 avax  2023-01-01 03:00:00             10.8
 5 avax  2023-01-01 04:00:00             10.8
 6 avax  2023-01-01 05:00:00             10.7
 7 avax  2023-01-01 06:00:00             10.7
 8 avax  2023-01-01 07:00:00             10.7
 9 avax  2023-01-01 08:00:00             10.7
10 avax  2023-01-01 09:00:00             10.7
# … with 1,271 more rows
# ℹ Use `print(n = ...)` to see more rows
```
…
